\BOOKMARK [1][-]{section.1}{Problem Definition}{}% 1
\BOOKMARK [1][-]{section.2}{notation}{}% 2
\BOOKMARK [1][-]{section.3}{Proposed Model}{}% 3
\BOOKMARK [2][-]{subsection.3.1}{HDHP as a Marked Hawkes Process}{section.3}% 4
\BOOKMARK [3][-]{subsubsection.3.1.1}{Generative Process}{subsection.3.1}% 5
\BOOKMARK [2][-]{subsection.3.2}{Using Hawkes Process as the clustering model}{section.3}% 6
\BOOKMARK [3][-]{subsubsection.3.2.1}{Generative Model}{subsection.3.2}% 7
\BOOKMARK [2][-]{subsection.3.3}{HDHP as an infinite dimension point process}{section.3}% 8
\BOOKMARK [1][-]{section.4}{Inference}{}% 9
\BOOKMARK [2][-]{subsection.4.1}{Final Model}{section.4}% 10
\BOOKMARK [2][-]{subsection.4.2}{Prediction}{section.4}% 11
