\relax 
\bibstyle{plainnat}
\citation{farajtabar2014}
\citation{UncoverTopicSensitive}
\citation{AhmedOnlineInference,ahmed2012timeline}
\citation{DirichletHawkes}
\citation{Iwata2013,Zhou2013a,tran2015netcodec}
\citation{liniger2009multivariate}
\citation{ViralDiffusion,UncoverTopicSensitive}
\citation{HawkesTopic}
\citation{du2012learning}
\citation{orbanz2011bayesian}
\citation{DependentNPModelsSurvey}
\citation{blei2011distance}
\newlabel{sec:SettingsAndBackground}{{2}{2}}
\newlabel{eqn:ddCRP-condtional}{{1}{2}}
\citation{HDP}
\citation{ahmed2012timeline}
\citation{}
\newlabel{eq:lambda}{{5}{3}}
\citation{}
\newlabel{eqn:totalLambda}{{8}{4}}
\newlabel{equation:Gt}{{10}{4}}
\newlabel{eqn:lambda}{{14}{5}}
\newlabel{eqn:lambdaIntegral}{{18}{5}}
\newlabel{eqn:d}{{20}{5}}
\newlabel{eqn:phi}{{21}{5}}
\newlabel{eqn:dcollapsed}{{22}{5}}
\newlabel{eqn:timeLikelihood}{{24}{6}}
\newlabel{eqn:integralOftimelikelihood}{{25}{6}}
\bibstyle{IEEEtran}
\bibdata{ref}
\bibcite{ahmed2012timeline}{{1}{2012}{{Ahmed and Xing}}{{}}}
\bibcite{AhmedOnlineInference}{{2}{2011}{{Ahmed et~al.}}{{Ahmed, Ho, Teo, Eisenstein, Xing, and Smola}}}
\bibcite{blei2011distance}{{3}{2011}{{Blei and Frazier}}{{}}}
\bibcite{du2012learning}{{4}{2012}{{Du et~al.}}{{Du, Song, Yuan, and Smola}}}
\bibcite{UncoverTopicSensitive}{{5}{2013}{{Du et~al.}}{{Du, Song, Woo, and Zha}}}
\bibcite{DirichletHawkes}{{6}{2015}{{Du et~al.}}{{Du, Farajtabar, Ahmed, Smola, and Song}}}
\bibcite{farajtabar2014}{{7}{2014}{{Farajtabar et~al.}}{{Farajtabar, Du, Gomez-Rodriguez, Valera, Zha, and Song}}}
\bibcite{DependentNPModelsSurvey}{{8}{2015}{{Foti et~al.}}{{Foti, Williamson, et~al.}}}
\bibcite{HawkesTopic}{{9}{}{{He et~al.}}{{He, Rekatsinas, EDU, Foulds, Getoor, Liu, and EDU}}}
\bibcite{Iwata2013}{{10}{2013}{{Iwata et~al.}}{{Iwata, Shah, and Ghahramani}}}
\bibcite{liniger2009multivariate}{{11}{2009}{{Liniger}}{{}}}
\bibcite{orbanz2011bayesian}{{12}{2011}{{Orbanz and Teh}}{{}}}
\bibcite{HDP}{{13}{2006}{{Teh et~al.}}{{Teh, Jordan, Beal, and Blei}}}
\bibcite{tran2015netcodec}{{14}{2015}{{Tran et~al.}}{{Tran, Farajtabar, Song, and Zha}}}
\bibcite{ViralDiffusion}{{15}{2013}{{Yang and Zha}}{{}}}
\bibcite{Zhou2013a}{{16}{2013}{{Zhou et~al.}}{{Zhou, Zha, and Song}}}
