\relax 
\providecommand\hyper@newdestlabel[2]{}
\providecommand\HyperFirstAtBeginDocument{\AtBeginDocument}
\HyperFirstAtBeginDocument{\ifx\hyper@anchor\@undefined
\global\let\oldcontentsline\contentsline
\gdef\contentsline#1#2#3#4{\oldcontentsline{#1}{#2}{#3}}
\global\let\oldnewlabel\newlabel
\gdef\newlabel#1#2{\newlabelxx{#1}#2}
\gdef\newlabelxx#1#2#3#4#5#6{\oldnewlabel{#1}{{#2}{#3}}}
\AtEndDocument{\ifx\hyper@anchor\@undefined
\let\contentsline\oldcontentsline
\let\newlabel\oldnewlabel
\fi}
\fi}
\global\let\hyper@last\relax 
\gdef\HyperFirstAtBeginDocument#1{#1}
\providecommand\HyField@AuxAddToFields[1]{}
\providecommand\HyField@AuxAddToCoFields[2]{}
\@writefile{toc}{\contentsline {section}{\numberline {1}Problem Definition}{1}{section.1}}
\@writefile{toc}{\contentsline {section}{\numberline {2}notation}{1}{section.2}}
\@writefile{lot}{\contentsline {table}{\numberline {1}{\ignorespaces Notations of the paper}}{2}{table.1}}
\@writefile{toc}{\contentsline {section}{\numberline {3}Proposed Model}{2}{section.3}}
\@writefile{toc}{\contentsline {subsection}{\numberline {3.1}HDHP as a Marked Hawkes Process}{2}{subsection.3.1}}
\newlabel{eqn:totalLambda}{{1}{2}{HDHP as a Marked Hawkes Process}{equation.3.1}{}}
\newlabel{equation:Gt}{{3}{3}{HDHP as a Marked Hawkes Process}{equation.3.3}{}}
\@writefile{toc}{\contentsline {subsubsection}{\numberline {3.1.1}Generative Process}{3}{subsubsection.3.1.1}}
\newlabel{eqn:lambda}{{7}{3}{Generative Process}{equation.3.7}{}}
\@writefile{toc}{\contentsline {subsection}{\numberline {3.2}Using Hawkes Process as the clustering model}{4}{subsection.3.2}}
\newlabel{eqn:singleLambda}{{10}{4}{Using Hawkes Process as the clustering model}{equation.3.10}{}}
\@writefile{toc}{\contentsline {subsubsection}{\numberline {3.2.1}Generative Model}{4}{subsubsection.3.2.1}}
\@writefile{toc}{\contentsline {subsection}{\numberline {3.3}HDHP as an infinite dimension point process}{5}{subsection.3.3}}
\newlabel{equation:Gt}{{17}{5}{HDHP as an infinite dimension point process}{equation.3.17}{}}
\newlabel{equation:theta}{{20}{5}{HDHP as an infinite dimension point process}{equation.3.20}{}}
\newlabel{equation:Gt}{{21}{6}{HDHP as an infinite dimension point process}{equation.3.21}{}}
\@writefile{toc}{\contentsline {subsection}{\numberline {3.4}Second Try}{6}{subsection.3.4}}
\@writefile{toc}{\contentsline {section}{\numberline {4}Inference}{6}{section.4}}
\newlabel{eqn:lambdaIntegral}{{25}{7}{Inference}{equation.4.25}{}}
\newlabel{eqn:d}{{27}{7}{Inference}{equation.4.27}{}}
\newlabel{eqn:phi}{{28}{7}{Inference}{equation.4.28}{}}
\newlabel{eqn:dcollapsed}{{29}{7}{Inference}{equation.4.29}{}}
\newlabel{eqn:timeLikelihood}{{31}{7}{Inference}{equation.4.31}{}}
\newlabel{eqn:integralOftimelikelihood}{{32}{8}{Inference}{equation.4.32}{}}
\@writefile{toc}{\contentsline {subsection}{\numberline {4.1}Prediction}{9}{subsection.4.1}}
