\BOOKMARK [1][-]{section.1}{Modeling}{}% 1
\BOOKMARK [2][-]{subsection.1.1}{Periodic Point Process}{section.1}% 2
\BOOKMARK [2][-]{subsection.1.2}{Marked STP Model}{section.1}% 3
\BOOKMARK [2][-]{subsection.1.3}{Marked Joint STP Model}{section.1}% 4
\BOOKMARK [1][-]{section.2}{Analysis}{}% 5
\BOOKMARK [1][-]{section.3}{Inference}{}% 6
\BOOKMARK [1][-]{section.4}{Prediction}{}% 7
\BOOKMARK [2][-]{subsection.4.1}{Optimal Restaurant Placement}{section.4}% 8
\BOOKMARK [2][-]{subsection.4.2}{Users Mining}{section.4}% 9
