\relax 
\providecommand\hyper@newdestlabel[2]{}
\providecommand\HyperFirstAtBeginDocument{\AtBeginDocument}
\HyperFirstAtBeginDocument{\ifx\hyper@anchor\@undefined
\global\let\oldcontentsline\contentsline
\gdef\contentsline#1#2#3#4{\oldcontentsline{#1}{#2}{#3}}
\global\let\oldnewlabel\newlabel
\gdef\newlabel#1#2{\newlabelxx{#1}#2}
\gdef\newlabelxx#1#2#3#4#5#6{\oldnewlabel{#1}{{#2}{#3}}}
\AtEndDocument{\ifx\hyper@anchor\@undefined
\let\contentsline\oldcontentsline
\let\newlabel\oldnewlabel
\fi}
\fi}
\global\let\hyper@last\relax 
\gdef\HyperFirstAtBeginDocument#1{#1}
\providecommand\HyField@AuxAddToFields[1]{}
\providecommand\HyField@AuxAddToCoFields[2]{}
\@writefile{toc}{\contentsline {section}{\numberline {1}Modeling}{1}{section.1}}
\@writefile{toc}{\contentsline {subsection}{\numberline {1.1}Periodic Point Process}{1}{subsection.1.1}}
\@writefile{lof}{\contentsline {figure}{\numberline {1}{\ignorespaces Periodic point process, the blue curve and its approximation, the green curve.}}{2}{figure.1}}
\newlabel{fig-periodicHawkes}{{1}{2}{Periodic point process, the blue curve and its approximation, the green curve}{figure.1}{}}
\@writefile{lof}{\contentsline {figure}{\numberline {2}{\ignorespaces Periodic point process with Gaussian kernel.}}{2}{figure.2}}
\newlabel{fig-periodicHawkes}{{2}{2}{Periodic point process with Gaussian kernel}{figure.2}{}}
\@writefile{toc}{\contentsline {subsection}{\numberline {1.2}Marked STP Model}{2}{subsection.1.2}}
\newlabel{equ:STPMintensity}{{10}{2}{Marked STP Model}{equation.1.10}{}}
\newlabel{equ:STPintensity}{{11}{2}{Marked STP Model}{equation.1.11}{}}
\@writefile{toc}{\contentsline {subsection}{\numberline {1.3}Marked Joint STP Model}{3}{subsection.1.3}}
\newlabel{equ:JSTPintensity}{{14}{3}{Marked Joint STP Model}{equation.1.14}{}}
\@writefile{toc}{\contentsline {section}{\numberline {2}Analysis}{3}{section.2}}
\@writefile{toc}{\contentsline {section}{\numberline {3}Inference}{3}{section.3}}
\newlabel{prop1}{{1}{3}{}{proposition.1}{}}
\@writefile{toc}{\contentsline {section}{\numberline {4}Prediction}{3}{section.4}}
\@writefile{toc}{\contentsline {subsection}{\numberline {4.1}Optimal Restaurant Placement}{4}{subsection.4.1}}
\@writefile{toc}{\contentsline {subsection}{\numberline {4.2}Users Mining}{4}{subsection.4.2}}
