4.782132686405579647e-03
6.302918314079495286e-03
1.197796488136746622e-03
4.156363097241302842e-04
1.189645065301355754e-02
1.898969820521102803e-02
2.372455835528874610e-02
1.059962828426053681e-02
4.388842331963623694e-03
1.079556658255927983e-02
1.136532896246652061e-02
2.047494652761224984e-02
1.671192522879687281e-02
9.864325050997563987e-03
8.686363200187481939e-03
1.561599104290109161e-02
1.136402967526164293e-02
2.390874756131321482e-03
5.813650315866689643e-04
1.769421494665590578e-03
4.037067857095023166e-02
4.308799615198143605e-03
3.754849376699766206e-03
1.554429857674272976e-02
1.221909656143137929e-02
1.089845865742030892e-02
6.760250432128625184e-03
3.474368749914654060e-03
1.395291938321642326e-02
2.266701680522667864e-02
5.879470770822631774e-03
1.713728915459695676e-02
3.160558160963743146e-02
1.210726957949151070e-03
1.819914800296289041e-03
5.487911808110235677e-03
1.023170689099917909e-02
7.676554192682261135e-03
6.244105864764889699e-03
9.004060865418009318e-03
4.053296499101331947e-03
8.023600832377105266e-03
1.920612009681195497e-04
2.724199440044627191e-02
2.266996180415922508e-03
2.596129563084109259e-03
1.610662028936487439e-02
6.174346345098628321e-03
8.673804467792225331e-03
3.668082179880903168e-03
2.694718198273919011e-03
2.844822245056469363e-03
2.801141270587998670e-03
1.064909948169845758e-03
4.424434997672267375e-03
1.228372114794260180e-02
9.879822629690689800e-05
1.370148384167889626e-03
3.118575867076439634e-02
1.252889888544862339e-03
1.215974820699668169e-02
1.485007793849664644e-02
6.544736648335300160e-03
2.443772344911731859e-03
2.240779679248872461e-02
9.935026990453756784e-04
7.432650221983709039e-03
1.394318899262802190e-02
1.991400774153883474e-02
1.789310825956147780e-02
2.979512110437277511e-03
4.803417596773717352e-02
1.277116980349575189e-03
6.254312736192587513e-03
2.319165776006617066e-02
2.232115301264273391e-02
8.183952532044735939e-03
2.921034094231539881e-05
2.235209034541250570e-02
5.409805344054223648e-03
4.121247060031540260e-03
4.136726592455780560e-02
3.153880927018962860e-02
6.274852792687449568e-03
5.741493939022889251e-03
1.314292170137436322e-02
7.741783935212406126e-03
8.128393848598060994e-03
3.614409614438792665e-03
3.979066927743852428e-02
2.638895895882187922e-03
9.002374359543204724e-03
1.550322784927346889e-03
1.528149291278056709e-03
7.792024426221823936e-04
1.479701070530035391e-02
1.017767587754523327e-02
4.849120304733121715e-03
2.030388958313647171e-02
2.235392565597063216e-03
2.624181977959285338e-03
2.607453319367868810e-02
1.375339285616842752e-02
5.365321661787447044e-03
6.920359821508287670e-03
7.529447444387053941e-03
3.409402299462327510e-03
2.196432505474734884e-02
9.046524793368805563e-04
2.949126837692798639e-03
2.241126454026589731e-03
6.429675442012181344e-03
2.180739275496514432e-02
2.013441861026267574e-03
1.675527115236245118e-02
1.017482467742161951e-02
1.511880783350957620e-03
2.992531863053460653e-02
1.961274564458258957e-02
9.372193762345697871e-03
3.240167802028869753e-02
4.779750711877845878e-03
2.121481945431934711e-03
1.544130192277298579e-02
1.449104687350974961e-04
3.647877795577079973e-02
2.108154772540525232e-02
6.237265493310978522e-03
7.560526877656449825e-03
5.292993739083558420e-03
2.353373547659302206e-03
1.758701149951438141e-04
3.087629823272651161e-02
1.908705686822062672e-03
2.789662566108019187e-02
1.756870540738053729e-03
2.239316442609053884e-04
2.168157815910718572e-02
1.467768238506109331e-02
3.779243807596747995e-03
2.097484061691798525e-03
7.216654316580400214e-03
1.433171881725139873e-02
3.597390791619400462e-03
1.538944435867132740e-03
3.644558539919938618e-03
3.490457709034327539e-03
4.397372187324769498e-03
1.782840394350629354e-02
7.949721973399227412e-03
2.489817712010070766e-02
2.168636713689350848e-02
6.653329601069893871e-03
5.629551077359121712e-04
2.116610800796999130e-03
2.111259897418774761e-02
2.280422100358234921e-02
5.288021284529003177e-03
7.163134279143855421e-03
1.948723359410028537e-05
3.124590584241020153e-03
1.426792668384960737e-02
7.805139249685811957e-03
6.799872157621007600e-03
4.305129505163118181e-02
7.725052260659542175e-03
2.439417184638642891e-02
7.728421196149457863e-03
5.010099905782283876e-03
1.543679455975936320e-03
3.855636653346895208e-03
1.331883138936399910e-02
3.476894526918573782e-03
6.041939196359895868e-04
1.846068651695263740e-02
8.824218358861310452e-03
5.289331197385624753e-03
3.369153246401872942e-02
9.538976700457951416e-03
1.263578583733795252e-02
1.093109307138662688e-02
1.371612036619495332e-03
5.045541523531775832e-03
2.513919314052235048e-03
1.935364876726817715e-02
1.762795007388792690e-02
8.283699926442414374e-03
4.947311316262401710e-04
1.626376603271672411e-02
8.519206317960870828e-03
8.172186038196846414e-03
4.601808391854675211e-03
4.220302958653211929e-03
3.646112199957761424e-02
5.721996495554386398e-04
4.202628094115983155e-04
1.658846146881006248e-02
1.320527255804081635e-04
3.549732478408172687e-02
3.938691274976543338e-02
2.869073562766557769e-02
4.562790564068708137e-03
1.253170528432144548e-02
8.378501294909032962e-03
2.428868293882494988e-03
7.104988790454386423e-03
2.208302610725055778e-02
2.635552896299714776e-03
1.439064945135963211e-02
7.787170534409308849e-03
1.144115483322937291e-02
2.751406939732450874e-02
1.781005369646755307e-02
2.642785351731048293e-03
1.592020665919426092e-02
6.479134197967315175e-04
1.967123225860399702e-03
1.454840210290313067e-02
5.533887965984398078e-04
2.737677486124622753e-03
3.547736167520299400e-03
8.645894997317349687e-03
7.756003812857775910e-03
1.337208762260745816e-02
5.840014810085844901e-03
7.923695189437628475e-03
1.207465958979995471e-03
5.397206010196756512e-03
5.618210752414875414e-03
1.421938086202535062e-02
4.402318291910349742e-03
1.902042644206125913e-02
5.240479120110048961e-02
1.686179792046512685e-03
3.475729413666495127e-02
7.173144667219833424e-03
3.746039269172067934e-03
2.620357796274399784e-02
4.909652955107371257e-03
9.601565310805455430e-03
7.624288904058610858e-03
1.869855711412770141e-02
1.013903479203149627e-03
3.656202138864855268e-03
3.360281118342225027e-03
1.244117543120100205e-03
7.286571918362191348e-03
1.311837061466307464e-02
1.174275837336802124e-02
2.025558503431153928e-02
1.839329070884413928e-02
1.647420528787506278e-02
1.216342122041570717e-02
1.289881769318114522e-03
1.593137526523806221e-03
4.644489083105705386e-03
8.268995005496866321e-03
1.106100936437872523e-02
8.294473221000971119e-03
1.051597589602861621e-02
5.930017693198294873e-03
1.136860440752122470e-03
1.543841114724752274e-03
3.495862355861590384e-03
2.006210569052655976e-02
1.071237741777060493e-02
3.896617720353261205e-02
6.887643170288366458e-03
1.609635007989450566e-03
5.424944717401548877e-03
2.301961585738032320e-02
1.814045371974722749e-03
4.438921319481828331e-05
5.550392593523749592e-03
3.594183623479343254e-02
1.455539790730652882e-03
4.133203840169570207e-04
7.612809406591597959e-03
9.354927358462641104e-05
2.458946454443110968e-02
2.840754231779596406e-03
1.050088915345966968e-02
7.454111521808572290e-03
3.751458131310455180e-03
1.007307900206870846e-02
5.534541016457760094e-03
1.153694311924406517e-02
1.610465701786341656e-03
1.850037563189253775e-02
5.038612527501061967e-04
3.993153293131537079e-02
4.164080132189906282e-03
8.674385077937434019e-03
5.533773279690726819e-03
2.251787139564290132e-03
1.191352488418129935e-02
4.923100167902576957e-03
5.034609374125899317e-03
2.767655115911641771e-03
2.438347542946260865e-03
3.619172356950801309e-03
8.167144954439780127e-03
3.000743078718407387e-03
3.775184526803107652e-03
2.085837265194715687e-03
3.128943868696490091e-03
1.714834144204408287e-02
1.751974885426378983e-02
2.772671672800072415e-02
2.475341434515931915e-02
3.875783270523577330e-03
1.040954664722209752e-02
8.887860566292165101e-03
2.026330878067881744e-02
4.652480437097990251e-03
1.109951398592521309e-02
3.276938222899063169e-02
1.862136248512056419e-02
4.923806892594020587e-03
3.772296544453636758e-03
1.704398475250912606e-02
7.117710084041307950e-03
6.306590163861905754e-04
4.455354906478841553e-03
3.304058541192799597e-02
1.406500691287100070e-02
8.020890460069636171e-03
1.175679151348698638e-02
3.154015542328163918e-02
5.990865502392236919e-03
4.241595226607225433e-02
3.633572981630118354e-02
3.309651866521400032e-02
2.679699376019882995e-03
7.142032981958808084e-03
3.885301199546670713e-03
2.175633461000538171e-02
9.723022227561967101e-03
9.542464998039846148e-04
2.415398159854468228e-03
3.861299384264645605e-03
2.417297729364401449e-03
6.388573028016719842e-03
1.035717587441004929e-02
3.445532286470748447e-03
1.082357141942935858e-03
5.210692512256726895e-03
5.647686266986627970e-03
1.768924521178209461e-02
1.633871789973553174e-02
5.179439628449674336e-03
9.261091146046935771e-03
1.453680970606379547e-02
1.972254753964990809e-02
2.076622654038937782e-02
1.635662802438786608e-03
1.210834752197174902e-02
1.470643396675561532e-04
1.435316754800226163e-02
1.204603600949998368e-02
1.142280400380397964e-02
4.794334865472034239e-03
2.690143566952386475e-02
3.638220462652041413e-03
4.505859876408499672e-03
1.520847784491150857e-02
5.507184226601997620e-03
2.304193507043481720e-02
1.311113566180471118e-02
1.754277890816110597e-03
1.301650439900324530e-02
7.942844955925110889e-03
5.646040479586057238e-03
3.280126230956741107e-02
4.319318070093007729e-03
1.108708055450323936e-03
6.903283231917427178e-04
2.100688262697824726e-03
3.718930007095699528e-03
3.528481069962089919e-03
9.067085495908013340e-03
2.211310572140670963e-02
9.857871464280593826e-03
6.269174959149838300e-03
1.179436728576690324e-02
1.218563913729864279e-02
1.004357610874181744e-03
1.916622481899221686e-02
2.193561116422505439e-03
6.198348231997612319e-03
1.108927938482672654e-02
1.866325924824552979e-02
6.095966822349217773e-04
2.390336544181205156e-03
1.290508355529240703e-03
1.444016763125036910e-03
9.395132831163117981e-03
3.014165279138716555e-02
4.867471712667248950e-03
1.737141897997494799e-02
2.200305245579617895e-03
1.040411472282635509e-02
1.690526660592236302e-02
9.460931040141022999e-03
1.753728562648050084e-03
2.142122188245239658e-02
3.854813921076841437e-03
1.587091340980408688e-02
5.121693980472001627e-04
6.485223874380483845e-03
3.854763965131424719e-02
8.973235588348010480e-03
1.863332135304636514e-03
3.748823970591318232e-04
1.029022854705284248e-02
7.404750833623946656e-03
1.088018373329158444e-03
1.061528647409905324e-02
1.004092967771129776e-03
8.051579318421393100e-03
1.718858597378010911e-04
1.898186729761169173e-02
1.246634208206713959e-02
1.698298993902566147e-03
4.959749928148579103e-03
4.938706153319165695e-03
8.132308745315420043e-03
2.050635382896091180e-02
6.119744270638457703e-03
1.742481673300141573e-02
4.403453636453310942e-03
1.290557194308842963e-02
1.220294673410952935e-02
1.518638152362211322e-02
2.943516397903827696e-03
1.344261250605020483e-02
8.119197696331268560e-03
9.728102054241809585e-03
1.311080423037041913e-02
9.249735731947960823e-03
7.176594948765090479e-03
1.479303137271786167e-02
2.177692222981149773e-03
1.830329946165795002e-02
9.906448404290252308e-03
1.973274432043025869e-02
8.197909960755931107e-05
5.532802782053164274e-03
5.615897403227282196e-03
7.162776435810289805e-03
1.698814313995756012e-02
2.320980846906147040e-03
8.975504708625851175e-03
6.507645568432422929e-03
4.675712752696788849e-03
6.008622894115677252e-03
1.525536438066741295e-02
3.468306349310151110e-03
7.029930654963998174e-03
2.373157026461671440e-02
1.026327240511466787e-02
7.444202697437724350e-03
2.030602385541771179e-02
5.340189942784976784e-04
5.380408071913412443e-02
5.631560174894502391e-03
3.639317836371158948e-03
1.229445883754399756e-03
5.205935871478495347e-03
1.722280234790364096e-03
1.018633058963894396e-02
4.031671269721968411e-03
7.037225250539609622e-02
2.854081886778825003e-02
3.527395599924905423e-02
4.365052505870846422e-03
1.082958665074024163e-02
2.043023690684177274e-02
8.427470847240636428e-03
1.094334510696643803e-03
8.019032663373478267e-03
1.205634556754489606e-02
2.655134973892219440e-03
2.615216973417096649e-02
2.230042815151291394e-02
3.747967534711503425e-03
1.101112914965197975e-02
6.583501439485993888e-04
1.533896810323266257e-03
9.716099848095219663e-03
5.278245900838612024e-03
3.032062258008248051e-02
4.004166467337514149e-03
1.791286254181918836e-02
4.003327591849805377e-03
4.542179411767844135e-03
2.846113239097972786e-02
1.982603442584799855e-03
6.295361961755814063e-03
5.295501502841566330e-03
